8240,0.13036
10408,0.26656
12576,0.28722
14744,0.3104
31982,0.46678
40414,0.42682
48846,0.47176
71236,0.48506
90028,0.46746
108820,0.5318
127612,0.64874
126002,0.63794
159250,0.69422
192498,0.44104
225746,0.52994
196280,0.66098
248080,0.7076
299880,0.7589
351680,0.66526
282070,0.75596
356518,0.75834
430966,0.66458
505414,0.7846
383372,0.8032
484564,0.76906
585756,0.69656
686948,0.8223
500186,0.80042
632218,0.85136
764250,0.76228
896282,0.72726
632512,0.84796
799480,0.8652
966448,0.78922
1133416,0.85836
780350,0.87474
986350,0.8767
1192350,0.88212
1398350,0.88572
943700,0.91138
1192828,0.88052
1441956,0.86218
1691084,0.90572
1122562,0.88498
1418914,0.90342
1715266,0.90632
2011618,0.92218
1316936,0.87734
1664608,0.91418
2012280,0.91196
2359952,0.92826
1526822,0.89034
1929910,0.9356
2332998,0.9413
2736086,0.9267
1752220,0.92236
2214820,0.89498
2677420,0.91518
3140020,0.94296
1993130,0.94954
2519338,0.9379
3045546,0.93054
3571754,0.94856
2249552,0.95584
2843464,0.95776
3437376,0.93398
4031288,0.95096
2521486,0.94836
3187198,0.95828
3852910,0.95826
4518622,0.93904
2808932,0.93714
3550540,0.94868
4292148,0.95068
5033756,0.9511
3111890,0.95082
3933490,0.9506
4755090,0.94498
5576690,0.96144
3430360,0.96178
4336048,0.96916
5241736,0.96876
6147424,0.9676
3764342,0.95934
4758214,0.95622
5752086,0.95288
6745958,0.96304
4113836,0.9623
5199988,0.95536
6286140,0.9625
7372292,0.9565
4478842,0.95968
5661370,0.96244
6843898,0.96386
8026426,0.95482
4859360,0.97258
6142360,0.96394
7425360,0.95838
8708360,0.96264
5255390,0.97164
6642958,0.9621
8030526,0.9651
9418094,0.95956
5666932,0.96774
7163164,0.96484
